sindico=erick=e10adc3949ba59abbe56e057f20f883e
atendente=edu=e10adc3949ba59abbe56e057f20f883e
funcionario=csorgo=e10adc3949ba59abbe56e057f20f883e
sindico=hamilton=e10adc3949ba59abbe56e057f20f883e
atendente=keite=e10adc3949ba59abbe56e057f20f883e
funcionario=robson=e10adc3949ba59abbe56e057f20f883e
atendente=isa=e10adc3949ba59abbe56e057f20f883e
funcionario=daniel=e10adc3949ba59abbe56e057f20f883e